class1-d
…
## Parsed with column specification:
## cols(
##   `sample-name` = col_character(),
##   hour = col_double(),
##   treatment = col_character(),
##   experiment = col_character()
## )

3. Getting familiar with the data

count_summary_rna #this works well with tbl_df data type. Others could take a LONG time  

## # A tibble: 20,025 x 18
##    Geneid Chr   Start End   Strand Length `0h_1_RNA_S13_u `0h_2_RNA_S14_u
##    <chr>  <chr> <chr> <chr> <chr>   <dbl>            <dbl>            <dbl>
##  1 ENST0 chr1 9446 9448 -;-;-   2265            243              322  
##  2 ENST0 chr1 9614 9615 +;+;+   1686             19               17  
##  3 ENST0 chr1  1014 1014 +         473             45               53  
##  4 ENST0 chr1 1041 1041 +;+;+   5060             42               50  
##  5 ENST0 chr1 1082 1082 -;-;-   1148             17               19  
##  6 ENST0 chr1  1217 1217 -         168             27.5             33.7
##  7 ENST0 chr1 1217 1217 -;-;-   1070            158              170. 
##  8 ENST0 chr1 1217 1217 -;-;-   1028            148.             162. 
##  9 ENST0 chr1  1232 1233 +         866             11               21  
## 10 ENST0 chr1 1255 1255 -;-;-    625             27.3             23.8
## # ... with 20,015 more rows, and 10 more variables:
## #   `0h_3_RNA_S15_umi.bam` <dbl>, `14h_1_RNA_S22_umi.bam` <dbl>,
## #   `14h_2_RNA_S23_umi.bam` <dbl>, `14h_3_RNA_S24_umi.bam` <dbl>,
## #   `4h_1_RNA_S16_umi.bam` <dbl>, `4h_2_RNA_S17_umi.bam` <dbl>,
## #   `4h_3_RNA_S18_umi.bam` <dbl>, `8h_1_RNA_S19_umi.bam` <dbl>,
## #   `8h_2_RNA_S20_umi.bam` <dbl>, `8h_3_RNA_S21_umi.bam` <dbl>
…
