class5-DGE.Rmd
…
data_with_clusters %>% filter(cluster == 1) %>% select(hgnc_symbol)

## # A tibble: 369 x 1
##    hgnc_symbol
##    <chr>      
##  1 GCLC       
##  2 NFYA       
##  3 HCCS       
##  4 CIAPIN1    
##  5 CROT       
##  6 TMEM132A   
##  7 IFRD1      
##  8 RANBP9     
##  9 ZNF207     
## 10 HGF        
## #  with 359 more rows

data_with_clusters %>% filter(cluster == 2) %>% select(hgnc_symbol)

## # A tibble: 872 x 1
##    hgnc_symbol
##    <chr>      
##  1 BAD        
##  2 MAD1L1     
##  3 POLDIP2    
##  4 ITGA3      
##  5 ALDH3B1    
##  6 ANLN       
##  7 PPP5C      
##  8 CEP68      
##  9 ERCC1      
## 10 CALCOCO1   
## #  with 862 more rows
…
