class1
…
Quick look at data - 3

## # A tibble: 20,025 x 18
##    Geneid Chr   Start End   Strand Length `/beevol/home/g `/beevol/home/g
##    <chr>  <chr> <chr> <chr> <chr>   <dbl>            <dbl>            <dbl>
##  1 ENST0 chr1 9446 9448 -;-;-   2265            243              322  
##  2 ENST0 chr1 9614 9615 +;+;+   1686             19               17  
##  3 ENST0 chr1  1014 1014 +         473             45               53  
##  4 ENST0 chr1 1041 1041 +;+;+   5060             42               50  
##  5 ENST0 chr1 1082 1082 -;-;-   1148             17               19  
##  6 ENST0 chr1  1217 1217 -         168             27.5             33.7
##  7 ENST0 chr1 1217 1217 -;-;-   1070            158              170. 
##  8 ENST0 chr1 1217 1217 -;-;-   1028            148.             162. 
##  9 ENST0 chr1  1232 1233 +         866             11               21  
## 10 ENST0 chr1 1255 1255 -;-;-    625             27.3             23.8
## # ... with 20,015 more rows, and 10 more variables:
## #   `/beevol/home/gillena/projects/scratch/mike_ribo/data/20181030/star/riboseq/0h_3_RNA_S15_umi.bam` <dbl>,
## #   `/beevol/home/gillena/projects/scratch/mike_ribo/data/20181030/star/riboseq/14h_1_RNA_S22_umi.bam` <dbl>,
## #   `/beevol/home/gillena/projects/scratch/mike_ribo/data/20181030/star/riboseq/14h_2_RNA_S23_umi.bam` <dbl>,
## #   `/beevol/home/gillena/projects/scratch/mike_ribo/data/20181030/star/riboseq/14h_3_RNA_S24_umi.bam` <dbl>,
## #   `/beevol/home/gillena/projects/scratch/mike_ribo/data/20181030/star/riboseq/4h_1_RNA_S16_umi.bam` <dbl>,
## #   `/beevol/home/gillena/projects/scratch/mike_ribo/data/20181030/star/riboseq/4h_2_RNA_S17_umi.bam` <dbl>,
## #   `/beevol/home/gillena/projects/scratch/mike_ribo/data/20181030/star/riboseq/4h_3_RNA_S18_umi.bam` <dbl>,
## #   `/beevol/home/gillena/projects/scratch/mike_ribo/data/20181030/star/riboseq/8h_1_RNA_S19_umi.bam` <dbl>,
…
